{
  "save": {
    "title": "Do you want to save the changes you made?",
    "content": "It seems like you have made changes in this question. Are you sure you want to save these changes? Confirm to proceed."
  },
  "deleteQuestion": {
    "title": "Are you sure you want to delete this question?",
    "content": "This question will be permanently removed. This action cannot be undone. Do you still want to proceed?"
  },
  "deleteExam": {
    "title": "Are you sure you want to delete this exam?",
    "content": "This exam will be permanently removed. This action cannot be undone. Do you still want to proceed?"
  },
  "unsave": {
    "title": "Are you sure you want to discard your changes?",
    "content": "Hey there! It looks like you are trying to leave with unsaved changes on your question. Do you wish to undo these changes? This action cannot be undone."
  },
  "saveExam": {
    "title": "Do you want to save the changes you made?",
    "content": "It seems like you have made changes in this exam. Are you sure you want to save these changes? Confirm to proceed."
  },
  "unsaveExam": {
    "title": "Are you sure you want to discard your changes?",
    "content": "Hey there! It looks like you are trying to leave with unsaved changes on your exam. Do you wish to undo these changes? This action cannot be undone."
  },
  "unpublishExam": {
    "title": "Are you sure you want to unpublish this exam?",
    "content": "This exam will not be viewable to the candidates, are you sure you want to proceed? This action cannot be undone."
  },
  "publishExam": {
    "title": "Are you sure you want to publish this exam?",
    "content": "You can only publish one exam at a time. This will unpublish the current published exam."
  },
  "submitExam": {
    "title": "Are you sure you want to submit this exam?",
    "content": "Make sure that you have answered each question. Confirming means you are confident to submit, are you sure you want to proceed? This action cannot be undone."
  }
}
